{
  "current_page": 1,
  "data": [
    {
      "id": 595,
      "title": "FA-FOUR-IT",
      "title_en": "FA-FOUR-IT",
      "description": "RABU MENGGEBU description",
      "description_en": "RABU MENGGEBU description en",
      "image_url": "https://s.misteraladin.com/images/banner/0000001000/0000000595/homepage_banner_kv_promo_apps_only_hotel_group_1920x500.jpg",
      "image_url_en": "https://s.misteraladin.com/images/banner/0000001000/0000000595/homepage_banner_kv_promo_apps_only_hotel_group_1920x500.jpg",
      "link": "https://aladin:abugosok@staging.misteraladin.com/promotions/fafourit?lang=en",
      "type": "promotion_landing_page",
      "product_type": "hotel",
      "product_type_name": "Hotel",
      "slug_detail": null,
      "position": "landingpage",
      "domain": "desktop",
      "start_date": "2019-06-21 00:00:47",
      "end_date": "2019-06-30 23:22:47",
      "sequence": 1,
      "is_show_description": null,
      "position_description": "left",
      "filename": "homepage_banner_kv_promo_apps_only_hotel_group_1920x500.jpg",
      "filename_en": "homepage_banner_kv_promo_apps_only_hotel_group_1920x500.jpg",
      "landing_link": "",
      "landing_link_en": "",
      "share_link": "https://aladin:abugosok@staging.misteraladin.com/promotions/fafourit?lang=en",
      "share_text": "Are you seeing this too? The discount is no joke!",
      "created_by": 0
    },
    {
      "id": 305,
      "title": "Aladin Fest Special Indonesian Idol",
      "description": null,
      "base_url": "https://amcdn.misteraladin.com/media/",
      "image_url": "https://amcdn.misteraladin.com/media/weltpixel/owlcarouselslider/images/s/l/slider_banner_1280x459_aladinmall_fest_sura_oct_22.png",
      "link": "https://aladinmall.misteraladin.com/store/detail/5295?page=1",
      "domain": "All Platform",
      "start_date": "2022-10-15 03:51:00",
      "end_date": "2022-10-16 23:59:00",
      "title_en": "Aladin Fest Special Indonesian Idol",
      "image_url_en": "https://amcdn.misteraladin.com/media/weltpixel/owlcarouselslider/images/s/l/slider_banner_1280x459_aladinmall_fest_sura_oct_22.png",
      "filename": "slider_banner_1280x459_aladinmall_fest_sura_oct_22.png",
      "filename_en": "slider_banner_1280x459_aladinmall_fest_sura_oct_22.png",
      "type": "promotion_landing_page",
      "product_type": "mall",
      "product_type_name": "mall",
      "position": "landingpage"
    },
    {
      "id": 598,
      "title": "VACAY-STAY",
      "title_en": "VACAY-STAY",
      "description": "",
      "description_en": "",
      "image_url": "https://s.misteraladin.com/images/banner/0000001000/0000000598/homepage_banner_hotel_1920x500px.jpg",
      "image_url_en": "https://s.misteraladin.com/images/banner/0000001000/0000000598/homepage_banner_hotel_1920x500px.jpg",
      "link": "https://aladin:abugosok@staging.misteraladin.com/promotions/vacaystay?lang=en",
      "type": "promotion_landing_page",
      "product_type": "hotel",
      "product_type_name": "Hotel",
      "slug_detail": null,
      "position": "landingpage",
      "domain": "desktop",
      "start_date": "2019-02-26 10:10:06",
      "end_date": "2019-02-28 23:59:06",
      "sequence": 1,
      "is_show_description": null,
      "position_description": "left",
      "filename": "homepage_banner_hotel_1920x500px.jpg",
      "filename_en": "homepage_banner_hotel_1920x500px.jpg",
      "landing_link": "",
      "landing_link_en": "",
      "share_link": "https://aladin:abugosok@staging.misteraladin.com/promotions/vacaystay?lang=en",
      "share_text": "Are you seeing this too? The discount is no joke!",
      "created_by": 0
    },
    {
      "id": 307,
      "title": "Harga terGANAS terPANAS",
      "description": null,
      "base_url": "https://amcdn.misteraladin.com/media/",
      "image_url": "https://amcdn.misteraladin.com/media/weltpixel/owlcarouselslider/images/k/v/kv_promo_10.10_harga_terganas_terpanas_slider_banner_1280x459.jpg",
      "link": "https://aladinmall.misteraladin.com/page/promo/harga-terganas-terpanas",
      "domain": "All Platform",
      "start_date": "2022-10-15 03:51:00",
      "end_date": "2022-10-23 23:59:00",
      "title_en": "Harga terGANAS terPANAS",
      "image_url_en": "https://amcdn.misteraladin.com/media/weltpixel/owlcarouselslider/images/k/v/kv_promo_10.10_harga_terganas_terpanas_slider_banner_1280x459.jpg",
      "filename": "kv_promo_10.10_harga_terganas_terpanas_slider_banner_1280x459.jpg",
      "filename_en": "kv_promo_10.10_harga_terganas_terpanas_slider_banner_1280x459.jpg",
      "type": "promotion_landing_page",
      "product_type": "mall",
      "product_type_name": "mall",
      "position": "landingpage"
    },
    {
      "id": 600,
      "title": "HOTEL PROMO TEST 2",
      "title_en": "HOTEL PROMO TEST 2",
      "description": "",
      "description_en": "",
      "image_url": "https://s.misteraladin.com/images/banner/0000001000/0000000600/homepage_banner_app_only_1920x500px.jpg",
      "image_url_en": "https://s.misteraladin.com/images/banner/0000001000/0000000600/homepage_banner_app_only_1920x500px.jpg",
      "link": "https://staging.misteraladin.com/promotions/fafourit?is_mobile=true&lang=en",
      "type": "promotion_landing_page",
      "product_type": "hotel",
      "product_type_name": "Hotel",
      "slug_detail": null,
      "position": "landingpage",
      "domain": "apps",
      "start_date": "2019-07-11 11:02:28",
      "end_date": "2019-11-27 22:22:28",
      "sequence": 1,
      "is_show_description": null,
      "position_description": "left",
      "filename": "homepage_banner_app_only_1920x500px.jpg",
      "filename_en": "homepage_banner_app_only_1920x500px.jpg",
      "landing_link": "",
      "landing_link_en": "",
      "share_link": "https://staging.misteraladin.com/promotions/fafourit?is_mobile=true&lang=en",
      "share_text": "Are you seeing this too? The discount is no joke!",
      "created_by": 0
    },
    {
      "id": 308,
      "title": "Promo Super Duper Murah",
      "description": null,
      "base_url": "https://amcdn.misteraladin.com/media/",
      "image_url": "https://amcdn.misteraladin.com/media/weltpixel/owlcarouselslider/images/s/l/slider_banner_1280x459_promo_sdm_sep_22_6.png",
      "link": "https://aladinmall.misteraladin.com/page/promo/super-duper-murah",
      "domain": "All Platform",
      "start_date": "2022-09-29 05:35:00",
      "end_date": "2022-11-16 23:59:00",
      "title_en": "Promo Super Duper Murah",
      "image_url_en": "https://amcdn.misteraladin.com/media/weltpixel/owlcarouselslider/images/s/l/slider_banner_1280x459_promo_sdm_sep_22_6.png",
      "filename": "slider_banner_1280x459_promo_sdm_sep_22_6.png",
      "filename_en": "slider_banner_1280x459_promo_sdm_sep_22_6.png",
      "type": "promotion_landing_page",
      "product_type": "mall",
      "product_type_name": "mall",
      "position": "landingpage"
    },
    {
      "id": 602,
      "title": "HOTBOOKED",
      "title_en": "HOTBOOKED",
      "description": "",
      "description_en": "",
      "image_url": "https://s.misteraladin.com/images/banner/0000001000/0000000602/mobile_banner_maotf_general_892x500.jpg",
      "image_url_en": "https://s.misteraladin.com/images/banner/0000001000/0000000602/mobile_banner_maotf_general_892x500.jpg",
      "link": "https://aladin:abugosok@staging.misteralad.in/promotions/gopay?is_mobile=true&lang=en",
      "type": "promotion_landing_page",
      "product_type": "hotel",
      "product_type_name": "Hotel",
      "slug_detail": null,
      "position": "landingpage",
      "domain": "apps",
      "start_date": "2019-03-19 00:00:00",
      "end_date": "2020-01-31 22:22:59",
      "sequence": 1,
      "is_show_description": null,
      "position_description": "left",
      "filename": "mobile_banner_maotf_general_892x500.jpg",
      "filename_en": "mobile_banner_maotf_general_892x500.jpg",
      "landing_link": "",
      "landing_link_en": "",
      "share_link": "https://aladin:abugosok@staging.misteralad.in/promotions/gopay?is_mobile=true&lang=en",
      "share_text": "Are you seeing this too? The discount is no joke!",
      "created_by": 0
    },
    {
      "id": 309,
      "title": "Thematic Elektronik",
      "description": null,
      "base_url": "https://amcdn.misteraladin.com/media/",
      "image_url": "https://amcdn.misteraladin.com/media/weltpixel/owlcarouselslider/images/m/a/main-banner-17okt---thematic-elektronik.png",
      "link": "https://aladinmall.misteraladin.com/store/detail/5346?page=1",
      "domain": "All Platform",
      "start_date": "2022-10-17 00:08:00",
      "end_date": "2022-10-24 23:59:00",
      "title_en": "Thematic Elektronik",
      "image_url_en": "https://amcdn.misteraladin.com/media/weltpixel/owlcarouselslider/images/m/a/main-banner-17okt---thematic-elektronik.png",
      "filename": "main-banner-17okt---thematic-elektronik.png",
      "filename_en": "main-banner-17okt---thematic-elektronik.png",
      "type": "promotion_landing_page",
      "product_type": "mall",
      "product_type_name": "mall",
      "position": "landingpage"
    },
    {
      "id": 603,
      "title": "Fever",
      "title_en": "Fever",
      "description": "",
      "description_en": "",
      "image_url": "https://s.misteraladin.com/images/banner/0000001000/0000000603/hotel-fever-1569660342.jpg",
      "image_url_en": "https://s.misteraladin.com/images/banner/0000001000/0000000603/hotel-fever-1569660342-mobile.jpg",
      "link": "https://aladin:abugosok@staging.misteralad.in/hotel/group/travelio/2623?is_mobile=true&lang=en",
      "type": "promotion_landing_page",
      "product_type": "hotel",
      "product_type_name": "Hotel",
      "slug_detail": null,
      "position": "landingpage",
      "domain": "apps",
      "start_date": "2018-10-02 23:23:00",
      "end_date": "2019-10-30 23:27:00",
      "sequence": 1,
      "is_show_description": null,
      "position_description": "left",
      "filename": "hotel-fever-1569660342.jpg",
      "filename_en": "hotel-fever-1569660342-mobile.jpg",
      "landing_link": "",
      "landing_link_en": "",
      "share_link": "https://aladin:abugosok@staging.misteralad.in/hotel/group/travelio/2623?is_mobile=true&lang=en",
      "share_text": "Are you seeing this too? The discount is no joke!",
      "created_by": 0
    },
    {
      "id": 311,
      "title": "Kintakun",
      "description": null,
      "base_url": "https://amcdn.misteraladin.com/media/",
      "image_url": "https://amcdn.misteraladin.com/media/weltpixel/owlcarouselslider/images/m/a/main-banner-17-okt_kintakun.png",
      "link": "https://aladinmall.misteraladin.com/store/detail/kintakun-4836?page=1",
      "domain": "All Platform",
      "start_date": "2022-10-17 00:11:00",
      "end_date": "2022-10-24 23:59:00",
      "title_en": "Kintakun",
      "image_url_en": "https://amcdn.misteraladin.com/media/weltpixel/owlcarouselslider/images/m/a/main-banner-17-okt_kintakun.png",
      "filename": "main-banner-17-okt_kintakun.png",
      "filename_en": "main-banner-17-okt_kintakun.png",
      "type": "promotion_landing_page",
      "product_type": "mall",
      "product_type_name": "mall",
      "position": "landingpage"
    }
  ],
  "first_page_url": "http://staging-api.misteralad.in/generals/dynamic-promos?page=1",
  "from": 1,
  "last_page": 7,
  "last_page_url": "http://staging-api.misteralad.in/generals/dynamic-promos?page=7",
  "next_page_url": "http://staging-api.misteralad.in/generals/dynamic-promos?page=2",
  "path": "http://staging-api.misteralad.in/generals/dynamic-promos",
  "per_page": 10,
  "prev_page_url": null,
  "to": 10,
  "total": 66
}
